{"uuid":"50dc22e1-54a8-483f-afb7-16dfaca328ff","historyId":"d3c12a429f584402fd9e48ca9687e759","fullName":"com.lemon.testcaes.ProjectsCase.project","labels":[{"name":"package","value":"com.lemon.testcaes.ProjectsCase"},{"name":"testClass","value":"com.lemon.testcaes.ProjectsCase"},{"name":"testMethod","value":"project"},{"name":"parentSuite","value":"Suite"},{"name":"suite","value":"Test"},{"name":"subSuite","value":"com.lemon.testcaes.ProjectsCase"},{"name":"host","value":"LAPTOP-MLKHQJEV"},{"name":"thread","value":"10720@LAPTOP-MLKHQJEV.main(1)"}],"links":[],"name":"项目列表接口","status":"passed","statusDetails":{"known":false,"muted":false,"flaky":false},"stage":"finished","start":1577100179155,"stop":1577100179327,"steps":[{"name":"参数化替换 page=1&size=","status":"passed","stage":"finished","start":1577100179155,"stop":1577100179155,"parameters":[{"name":"params","value":"page=1&size="}]},{"name":"参数化替换 null","status":"passed","stage":"finished","start":1577100179156,"stop":1577100179156,"parameters":[{"name":"params","value":"null"}]},{"name":"参数化替换 [{\"value\":\"自动化测试平台项目\",\"expression\":\"$.results.name[0]\"}]","status":"passed","stage":"finished","start":1577100179157,"stop":1577100179157,"parameters":[{"name":"params","value":"[{\"value\":\"自动化测试平台项目\",\"expression\":\"$.results.name[0]\"}]"}]},{"name":"接口调用 http://api.keyou.site:8000/projects//page=1&size=","status":"passed","stage":"finished","start":1577100179159,"stop":1577100179327,"parameters":[{"name":"type","value":"RequestType [apiId=4, name=projects, type=get, url=http://api.keyou.site:8000/projects/, contenttype=json]"},{"name":"casedata","value":"RequestCase{caseId=18, description='传page，不传size', params='page=1&size=', apiId='4', experdata='[{\"value\":\"自动化测试平台项目\",\"expression\":\"$.results.name[0]\"}]', sqldata=''}"}]},{"name":"回写excel","status":"passed","stage":"finished","start":1577100179327,"stop":1577100179327,"parameters":[{"name":"rowNum","value":"18"},{"name":"cellNum","value":"5"},{"name":"content","value":"{\"count\":58,\"next\":\"http://api.keyou.site:8000/projects/?page=2&size=\",\"previous\":null,\"results\":[{\"id\":1,\"create_time\":\"2019-11-06 14:21:19\",\"name\":\"自动化测试平台项目\",\"leader\":\"可可\",\"tester\":\"优优\",\"programmer\":\"可优\",\"publish_app\":\"自动化测试平台应用\",\"desc\":\"该平台当前主要用于接口自动化测试.\",\"interfaces\":5,\"testsuits\":1,\"testcases\":5,\"configures\":2},{\"id\":2,\"create_time\":\"2019-11-06 14:22:54\",\"name\":\"前程贷P2P金融项目\",\"leader\":\"可优\",\"tester\":\"小可可\",\"programmer\":\"小优优\",\"publish_app\":\"前程贷P2P金融应用\",\"desc\":\"\",\"interfaces\":3,\"testsuits\":1,\"testcases\":1,\"configures\":1},{\"id\":3,\"create_time\":\"2019-11-06 14:24:43\",\"name\":\"西天取经项目\",\"leader\":\"唐僧\",\"tester\":\"猪八戒\",\"programmer\":\"孙悟空\",\"publish_app\":\"修成正果应用\",\"desc\":\"妖怪哪里跑?\",\"interfaces\":0,\"testsuits\":0,\"testcases\":0,\"configures\":0},{\"id\":4,\"create_time\":\"2019-11-06 14:27:33\",\"name\":\"红楼梦项目\",\"leader\":\"曹雪芹\",\"tester\":\"贾宝玉\",\"programmer\":\"王熙凤\",\"publish_app\":\"红楼梦研究应用\",\"desc\":\"如花美眷，怎敌似水流年。\",\"interfaces\":0,\"testsuits\":0,\"testcases\":0,\"configures\":0},{\"id\":5,\"create_time\":\"2019-11-06 14:28:54\",\"name\":\"水浒传项目\",\"leader\":\"施耐庵\",\"tester\":\"宋江\",\"programmer\":\"武松\",\"publish_app\":\"水浒传研究应用\",\"desc\":\"有缘千里来相会，无缘对面不相逢。\",\"interfaces\":0,\"testsuits\":0,\"testcases\":0,\"configures\":0},{\"id\":6,\"create_time\":\"2019-11-06 14:30:42\",\"name\":\"三国演义项目\",\"leader\":\"吴承恩\",\"tester\":\"刘备\",\"programmer\":\"关羽\",\"publish_app\":\"三国演义应用\",\"desc\":\"念刘备、关羽、张飞，虽然异姓，既结为兄弟，则同心协力，救困扶危；上报国家，下安黎庶。不求同年同月同日生，只愿同年同月同日死。皇天后土，实鉴此心，背义忘恩，天人共戮！\",\"interfaces\":0,\"testsuits\":0,\"testcases\":0,\"configures\":0},{\"id\":8,\"create_time\":\"2019-11-06 14:41:12\",\"name\":\"项目1\",\"leader\":\"某人\",\"tester\":\"某人\",\"programmer\":\"某人\",\"publish_app\":\"某应用\",\"desc\":\"某某描述\",\"interfaces\":0,\"testsuits\":0,\"testcases\":0,\"configures\":0},{\"id\":9,\"create_time\":\"2019-11-06 14:42:00\",\"name\":\"项目2\",\"leader\":\"某人\",\"tester\":\"某人\",\"programmer\":\"某人\",\"publish_app\":\"某应用\",\"desc\":\"某某描述\",\"interfaces\":0,\"testsuits\":0,\"testcases\":0,\"configures\":0},{\"id\":10,\"create_time\":\"2019-11-06 14:42:19\",\"name\":\"项目3\",\"leader\":\"某人\",\"tester\":\"某人\",\"programmer\":\"某人\",\"publish_app\":\"某应用\",\"desc\":\"某某描述\",\"interfaces\":0,\"testsuits\":0,\"testcases\":0,\"configures\":0},{\"id\":11,\"create_time\":\"2019-11-06 14:42:40\",\"name\":\"项目4\",\"leader\":\"某人\",\"tester\":\"某人\",\"programmer\":\"某人\",\"publish_app\":\"某应用\",\"desc\":\"某某描述\",\"interfaces\":0,\"testsuits\":0,\"testcases\":0,\"configures\":0}],\"total_pages\":6,\"current_page_num\":1}"}]},{"name":"断言接口响应内容 {\"count\":58,\"next\":\"http://api.keyou.site:8000/projects/?page=2&size=\",\"previous\":null,\"results\":[{\"id\":1,\"create_time\":\"2019-11-06 14:21:19\",\"name\":\"自动化测试平台项目\",\"leader\":\"可可\",\"tester\":\"优优\",\"programmer\":\"可优\",\"publish_app\":\"自动化测试平台应用\",\"desc\":\"该平台当前主要用于接口自动化测试.\",\"interfaces\":5,\"testsuits\":1,\"testcases\":5,\"configures\":2},{\"id\":2,\"create_time\":\"2019-11-06 14:22:54\",\"name\":\"前程贷P2P金融项目\",\"leader\":\"可优\",\"tester\":\"小可可\",\"programmer\":\"小优优\",\"publish_app\":\"前程贷P2P金融应用\",\"desc\":\"\",\"interfaces\":3,\"testsuits\":1,\"testcases\":1,\"configures\":1},{\"id\":3,\"create_time\":\"2019-11-06 14:24:43\",\"name\":\"西天取经项目\",\"leader\":\"唐僧\",\"tester\":\"猪八戒\",\"programmer\":\"孙悟空\",\"publish_app\":\"修成正果应用\",\"desc\":\"妖怪哪里跑?\",\"interfaces\":0,\"testsuits\":0,\"testcases\":0,\"configures\":0},{\"id\":4,\"create_time\":\"2019-11-06 14:27:33\",\"name\":\"红楼梦项目\",\"leader\":\"曹雪芹\",\"tester\":\"贾宝玉\",\"programmer\":\"王熙凤\",\"publish_app\":\"红楼梦研究应用\",\"desc\":\"如花美眷，怎敌似水流年。\",\"interfaces\":0,\"testsuits\":0,\"testcases\":0,\"configures\":0},{\"id\":5,\"create_time\":\"2019-11-06 14:28:54\",\"name\":\"水浒传项目\",\"leader\":\"施耐庵\",\"tester\":\"宋江\",\"programmer\":\"武松\",\"publish_app\":\"水浒传研究应用\",\"desc\":\"有缘千里来相会，无缘对面不相逢。\",\"interfaces\":0,\"testsuits\":0,\"testcases\":0,\"configures\":0},{\"id\":6,\"create_time\":\"2019-11-06 14:30:42\",\"name\":\"三国演义项目\",\"leader\":\"吴承恩\",\"tester\":\"刘备\",\"programmer\":\"关羽\",\"publish_app\":\"三国演义应用\",\"desc\":\"念刘备、关羽、张飞，虽然异姓，既结为兄弟，则同心协力，救困扶危；上报国家，下安黎庶。不求同年同月同日生，只愿同年同月同日死。皇天后土，实鉴此心，背义忘恩，天人共戮！\",\"interfaces\":0,\"testsuits\":0,\"testcases\":0,\"configures\":0},{\"id\":8,\"create_time\":\"2019-11-06 14:41:12\",\"name\":\"项目1\",\"leader\":\"某人\",\"tester\":\"某人\",\"programmer\":\"某人\",\"publish_app\":\"某应用\",\"desc\":\"某某描述\",\"interfaces\":0,\"testsuits\":0,\"testcases\":0,\"configures\":0},{\"id\":9,\"create_time\":\"2019-11-06 14:42:00\",\"name\":\"项目2\",\"leader\":\"某人\",\"tester\":\"某人\",\"programmer\":\"某人\",\"publish_app\":\"某应用\",\"desc\":\"某某描述\",\"interfaces\":0,\"testsuits\":0,\"testcases\":0,\"configures\":0},{\"id\":10,\"create_time\":\"2019-11-06 14:42:19\",\"name\":\"项目3\",\"leader\":\"某人\",\"tester\":\"某人\",\"programmer\":\"某人\",\"publish_app\":\"某应用\",\"desc\":\"某某描述\",\"interfaces\":0,\"testsuits\":0,\"testcases\":0,\"configures\":0},{\"id\":11,\"create_time\":\"2019-11-06 14:42:40\",\"name\":\"项目4\",\"leader\":\"某人\",\"tester\":\"某人\",\"programmer\":\"某人\",\"publish_app\":\"某应用\",\"desc\":\"某某描述\",\"interfaces\":0,\"testsuits\":0,\"testcases\":0,\"configures\":0}],\"total_pages\":6,\"current_page_num\":1}","status":"passed","stage":"finished","start":1577100179327,"stop":1577100179327,"parameters":[{"name":"casedata","value":"RequestCase{caseId=18, description='传page，不传size', params='page=1&size=', apiId='4', experdata='[{\"value\":\"自动化测试平台项目\",\"expression\":\"$.results.name[0]\"}]', sqldata=''}"},{"name":"content","value":"{\"count\":58,\"next\":\"http://api.keyou.site:8000/projects/?page=2&size=\",\"previous\":null,\"results\":[{\"id\":1,\"create_time\":\"2019-11-06 14:21:19\",\"name\":\"自动化测试平台项目\",\"leader\":\"可可\",\"tester\":\"优优\",\"programmer\":\"可优\",\"publish_app\":\"自动化测试平台应用\",\"desc\":\"该平台当前主要用于接口自动化测试.\",\"interfaces\":5,\"testsuits\":1,\"testcases\":5,\"configures\":2},{\"id\":2,\"create_time\":\"2019-11-06 14:22:54\",\"name\":\"前程贷P2P金融项目\",\"leader\":\"可优\",\"tester\":\"小可可\",\"programmer\":\"小优优\",\"publish_app\":\"前程贷P2P金融应用\",\"desc\":\"\",\"interfaces\":3,\"testsuits\":1,\"testcases\":1,\"configures\":1},{\"id\":3,\"create_time\":\"2019-11-06 14:24:43\",\"name\":\"西天取经项目\",\"leader\":\"唐僧\",\"tester\":\"猪八戒\",\"programmer\":\"孙悟空\",\"publish_app\":\"修成正果应用\",\"desc\":\"妖怪哪里跑?\",\"interfaces\":0,\"testsuits\":0,\"testcases\":0,\"configures\":0},{\"id\":4,\"create_time\":\"2019-11-06 14:27:33\",\"name\":\"红楼梦项目\",\"leader\":\"曹雪芹\",\"tester\":\"贾宝玉\",\"programmer\":\"王熙凤\",\"publish_app\":\"红楼梦研究应用\",\"desc\":\"如花美眷，怎敌似水流年。\",\"interfaces\":0,\"testsuits\":0,\"testcases\":0,\"configures\":0},{\"id\":5,\"create_time\":\"2019-11-06 14:28:54\",\"name\":\"水浒传项目\",\"leader\":\"施耐庵\",\"tester\":\"宋江\",\"programmer\":\"武松\",\"publish_app\":\"水浒传研究应用\",\"desc\":\"有缘千里来相会，无缘对面不相逢。\",\"interfaces\":0,\"testsuits\":0,\"testcases\":0,\"configures\":0},{\"id\":6,\"create_time\":\"2019-11-06 14:30:42\",\"name\":\"三国演义项目\",\"leader\":\"吴承恩\",\"tester\":\"刘备\",\"programmer\":\"关羽\",\"publish_app\":\"三国演义应用\",\"desc\":\"念刘备、关羽、张飞，虽然异姓，既结为兄弟，则同心协力，救困扶危；上报国家，下安黎庶。不求同年同月同日生，只愿同年同月同日死。皇天后土，实鉴此心，背义忘恩，天人共戮！\",\"interfaces\":0,\"testsuits\":0,\"testcases\":0,\"configures\":0},{\"id\":8,\"create_time\":\"2019-11-06 14:41:12\",\"name\":\"项目1\",\"leader\":\"某人\",\"tester\":\"某人\",\"programmer\":\"某人\",\"publish_app\":\"某应用\",\"desc\":\"某某描述\",\"interfaces\":0,\"testsuits\":0,\"testcases\":0,\"configures\":0},{\"id\":9,\"create_time\":\"2019-11-06 14:42:00\",\"name\":\"项目2\",\"leader\":\"某人\",\"tester\":\"某人\",\"programmer\":\"某人\",\"publish_app\":\"某应用\",\"desc\":\"某某描述\",\"interfaces\":0,\"testsuits\":0,\"testcases\":0,\"configures\":0},{\"id\":10,\"create_time\":\"2019-11-06 14:42:19\",\"name\":\"项目3\",\"leader\":\"某人\",\"tester\":\"某人\",\"programmer\":\"某人\",\"publish_app\":\"某应用\",\"desc\":\"某某描述\",\"interfaces\":0,\"testsuits\":0,\"testcases\":0,\"configures\":0},{\"id\":11,\"create_time\":\"2019-11-06 14:42:40\",\"name\":\"项目4\",\"leader\":\"某人\",\"tester\":\"某人\",\"programmer\":\"某人\",\"publish_app\":\"某应用\",\"desc\":\"某某描述\",\"interfaces\":0,\"testsuits\":0,\"testcases\":0,\"configures\":0}],\"total_pages\":6,\"current_page_num\":1}"}]},{"name":"回写excel","status":"passed","stage":"finished","start":1577100179327,"stop":1577100179327,"parameters":[{"name":"rowNum","value":"18"},{"name":"cellNum","value":"6"},{"name":"content","value":"Pass"}]}],"parameters":[{"name":"arg0","value":"RequestType [apiId=4, name=projects, type=get, url=http://api.keyou.site:8000/projects/, contenttype=json]"},{"name":"arg1","value":"RequestCase{caseId=18, description='传page，不传size', params='page=1&size=', apiId='4', experdata='[{\"value\":\"自动化测试平台项目\",\"expression\":\"$.results.name[0]\"}]', sqldata='null'}"}]}